127.0.0.1 - - [05/May/2017:00:09:32 -0300] "GET / HTTP/1.1" 404 1081
0:0:0:0:0:0:0:1 - - [05/May/2017:00:09:44 -0300] "GET /jsf-livraria/login.xhtml HTTP/1.1" 200 1903
0:0:0:0:0:0:0:1 - - [05/May/2017:00:09:44 -0300] "GET /jsf-livraria/javax.faces.resource/logo.png.xhtml;jsessionid=1B86D958BBA6417DF417A3F3F06EBD19?ln=img HTTP/1.1" 200 12682
0:0:0:0:0:0:0:1 - - [05/May/2017:00:09:44 -0300] "GET /favicon.ico HTTP/1.1" 404 1092
0:0:0:0:0:0:0:1 - - [05/May/2017:00:10:11 -0300] "POST /jsf-livraria/login.xhtml;jsessionid=1B86D958BBA6417DF417A3F3F06EBD19 HTTP/1.1" 302 -
0:0:0:0:0:0:0:1 - - [05/May/2017:00:10:12 -0300] "GET /jsf-livraria/livro.xhtml HTTP/1.1" 200 7380
0:0:0:0:0:0:0:1 - - [05/May/2017:00:10:17 -0300] "POST /jsf-livraria/livro.xhtml HTTP/1.1" 302 -
0:0:0:0:0:0:0:1 - - [05/May/2017:00:10:18 -0300] "GET /jsf-livraria/autor.xhtml HTTP/1.1" 200 4363
0:0:0:0:0:0:0:1 - - [05/May/2017:00:10:19 -0300] "POST /jsf-livraria/autor.xhtml HTTP/1.1" 302 -
0:0:0:0:0:0:0:1 - - [05/May/2017:00:10:20 -0300] "GET /jsf-livraria/login.xhtml HTTP/1.1" 200 1769
0:0:0:0:0:0:0:1 - - [05/May/2017:00:10:26 -0300] "GET /jsf-livraria/autor.xhtml HTTP/1.1" 302 -
0:0:0:0:0:0:0:1 - - [05/May/2017:00:10:26 -0300] "GET /jsf-livraria/login.xhtml HTTP/1.1" 200 1771
0:0:0:0:0:0:0:1 - - [05/May/2017:00:10:31 -0300] "GET /jsf-livraria/livro.xhtml HTTP/1.1" 302 -
0:0:0:0:0:0:0:1 - - [05/May/2017:00:10:31 -0300] "GET /jsf-livraria/login.xhtml HTTP/1.1" 200 1773
127.0.0.1 - - [05/May/2017:00:13:12 -0300] "GET / HTTP/1.1" 404 1081
0:0:0:0:0:0:0:1 - - [05/May/2017:00:13:13 -0300] "GET /jsf-livraria/login.xhtml HTTP/1.1" 200 1182
0:0:0:0:0:0:0:1 - - [05/May/2017:00:13:28 -0300] "POST /jsf-livraria/login.xhtml HTTP/1.1" 302 -
0:0:0:0:0:0:0:1 - - [05/May/2017:00:13:29 -0300] "GET /jsf-livraria/livro.xhtml HTTP/1.1" 200 7374
0:0:0:0:0:0:0:1 - - [05/May/2017:00:13:34 -0300] "GET /jsf-livraria/autor.xhtml HTTP/1.1" 200 4369
0:0:0:0:0:0:0:1 - - [05/May/2017:00:13:37 -0300] "POST /jsf-livraria/autor.xhtml HTTP/1.1" 302 -
0:0:0:0:0:0:0:1 - - [05/May/2017:00:13:37 -0300] "GET /jsf-livraria/login.xhtml HTTP/1.1" 200 1179
0:0:0:0:0:0:0:1 - - [05/May/2017:00:13:41 -0300] "GET /jsf-livraria/autor.xhtml HTTP/1.1" 302 -
0:0:0:0:0:0:0:1 - - [05/May/2017:00:13:41 -0300] "GET /jsf-livraria/login.xhtml HTTP/1.1" 200 1181
127.0.0.1 - - [05/May/2017:00:17:48 -0300] "GET / HTTP/1.1" 404 1081
0:0:0:0:0:0:0:1 - - [05/May/2017:00:17:50 -0300] "GET /jsf-livraria/login.xhtml HTTP/1.1" 200 1180
0:0:0:0:0:0:0:1 - - [05/May/2017:00:17:53 -0300] "POST /jsf-livraria/login.xhtml HTTP/1.1" 200 1256
0:0:0:0:0:0:0:1 - - [05/May/2017:00:17:55 -0300] "POST /jsf-livraria/login.xhtml HTTP/1.1" 200 1255
0:0:0:0:0:0:0:1 - - [05/May/2017:00:18:08 -0300] "POST /jsf-livraria/login.xhtml HTTP/1.1" 200 1181
127.0.0.1 - - [05/May/2017:00:21:04 -0300] "GET / HTTP/1.1" 404 1081
0:0:0:0:0:0:0:1 - - [05/May/2017:00:21:13 -0300] "POST /jsf-livraria/login.xhtml HTTP/1.1" 200 1208
0:0:0:0:0:0:0:1 - - [05/May/2017:00:21:21 -0300] "POST /jsf-livraria/login.xhtml HTTP/1.1" 200 1207
127.0.0.1 - - [05/May/2017:00:24:00 -0300] "GET / HTTP/1.1" 404 1081
0:0:0:0:0:0:0:1 - - [05/May/2017:00:24:06 -0300] "GET /jsf-livraria/login.xhtml HTTP/1.1" 200 1181
0:0:0:0:0:0:0:1 - - [05/May/2017:00:24:07 -0300] "POST /jsf-livraria/login.xhtml HTTP/1.1" 200 1256
0:0:0:0:0:0:0:1 - - [05/May/2017:00:24:55 -0300] "POST /jsf-livraria/login.xhtml HTTP/1.1" 200 1255
127.0.0.1 - - [05/May/2017:00:25:31 -0300] "GET / HTTP/1.1" 404 1081
0:0:0:0:0:0:0:1 - - [05/May/2017:00:25:32 -0300] "POST /jsf-livraria/login.xhtml HTTP/1.1" 200 1312
0:0:0:0:0:0:0:1 - - [05/May/2017:00:25:35 -0300] "POST /jsf-livraria/login.xhtml HTTP/1.1" 200 1313
0:0:0:0:0:0:0:1 - - [05/May/2017:00:25:40 -0300] "POST /jsf-livraria/login.xhtml HTTP/1.1" 200 1312
0:0:0:0:0:0:0:1 - - [05/May/2017:00:25:42 -0300] "POST /jsf-livraria/login.xhtml HTTP/1.1" 200 1312
0:0:0:0:0:0:0:1 - - [05/May/2017:00:28:37 -0300] "GET /jsf-livraria/login.xhtml HTTP/1.1" 200 1181
0:0:0:0:0:0:0:1 - - [05/May/2017:00:28:40 -0300] "POST /jsf-livraria/login.xhtml HTTP/1.1" 200 1313
0:0:0:0:0:0:0:1 - - [05/May/2017:00:28:56 -0300] "POST /jsf-livraria/login.xhtml HTTP/1.1" 200 1227
127.0.0.1 - - [05/May/2017:00:34:06 -0300] "GET / HTTP/1.1" 404 1081
0:0:0:0:0:0:0:1 - - [05/May/2017:00:34:20 -0300] "GET /jsf-livraria/login.xhtml HTTP/1.1" 200 1181
0:0:0:0:0:0:0:1 - - [05/May/2017:00:34:23 -0300] "POST /jsf-livraria/login.xhtml HTTP/1.1" 200 1313
0:0:0:0:0:0:0:1 - - [05/May/2017:00:34:37 -0300] "POST /jsf-livraria/login.xhtml HTTP/1.1" 302 -
0:0:0:0:0:0:0:1 - - [05/May/2017:00:34:37 -0300] "GET /jsf-livraria/login.xhtml HTTP/1.1" 200 1181
0:0:0:0:0:0:0:1 - - [05/May/2017:00:34:49 -0300] "GET /jsf-livraria/login.xhtml HTTP/1.1" 200 1181
0:0:0:0:0:0:0:1 - - [05/May/2017:00:34:59 -0300] "POST /jsf-livraria/login.xhtml HTTP/1.1" 302 -
0:0:0:0:0:0:0:1 - - [05/May/2017:00:34:59 -0300] "GET /jsf-livraria/login.xhtml HTTP/1.1" 200 1181
0:0:0:0:0:0:0:1 - - [05/May/2017:00:35:04 -0300] "POST /jsf-livraria/login.xhtml HTTP/1.1" 200 1313
0:0:0:0:0:0:0:1 - - [05/May/2017:00:35:05 -0300] "POST /jsf-livraria/login.xhtml HTTP/1.1" 200 1312
0:0:0:0:0:0:0:1 - - [05/May/2017:00:35:20 -0300] "POST /jsf-livraria/login.xhtml HTTP/1.1" 302 -
0:0:0:0:0:0:0:1 - - [05/May/2017:00:35:20 -0300] "GET /jsf-livraria/login.xhtml HTTP/1.1" 200 1181
127.0.0.1 - - [05/May/2017:00:36:23 -0300] "GET / HTTP/1.1" 404 1081
0:0:0:0:0:0:0:1 - - [05/May/2017:00:36:25 -0300] "GET /jsf-livraria/login.xhtml HTTP/1.1" 200 1181
0:0:0:0:0:0:0:1 - - [05/May/2017:00:36:27 -0300] "POST /jsf-livraria/login.xhtml HTTP/1.1" 200 1314
0:0:0:0:0:0:0:1 - - [05/May/2017:00:36:38 -0300] "POST /jsf-livraria/login.xhtml HTTP/1.1" 302 -
0:0:0:0:0:0:0:1 - - [05/May/2017:00:36:38 -0300] "GET /jsf-livraria/login.xhtml HTTP/1.1" 200 1227
